^C:\USERS\ADMIN\SOURCE\REPOS\SDIZO_PROJ1\SDIZO_PROJ1\RELEASE\ARRAY.OBJ|C:\USERS\ADMIN\SOURCE\REPOS\SDIZO_PROJ1\SDIZO_PROJ1\RELEASE\BINARY_HEAP.OBJ|C:\USERS\ADMIN\SOURCE\REPOS\SDIZO_PROJ1\SDIZO_PROJ1\RELEASE\DATA_STRUCT.OBJ|C:\USERS\ADMIN\SOURCE\REPOS\SDIZO_PROJ1\SDIZO_PROJ1\RELEASE\LIST.OBJ|C:\USERS\ADMIN\SOURCE\REPOS\SDIZO_PROJ1\SDIZO_PROJ1\RELEASE\RBTREE.OBJ|C:\USERS\ADMIN\SOURCE\REPOS\SDIZO_PROJ1\SDIZO_PROJ1\RELEASE\SDIZOPROJ1.OBJ|C:\USERS\ADMIN\SOURCE\REPOS\SDIZO_PROJ1\SDIZO_PROJ1\RELEASE\STDAFX.OBJ|C:\USERS\ADMIN\SOURCE\REPOS\SDIZO_PROJ1\SDIZO_PROJ1\RELEASE\STLARRAY.OBJ|C:\USERS\ADMIN\SOURCE\REPOS\SDIZO_PROJ1\SDIZO_PROJ1\RELEASE\STLLIST.OBJ
C:\WINDOWS\GLOBALIZATION\SORTING\SORTDEFAULT.NLS
C:\PROGRAM FILES (X86)\WINDOWS KITS\10\LIB\10.0.15063.0\UM\X86\KERNEL32.LIB
C:\PROGRAM FILES (X86)\WINDOWS KITS\10\LIB\10.0.15063.0\UM\X86\USER32.LIB
C:\PROGRAM FILES (X86)\WINDOWS KITS\10\LIB\10.0.15063.0\UM\X86\GDI32.LIB
C:\PROGRAM FILES (X86)\WINDOWS KITS\10\LIB\10.0.15063.0\UM\X86\WINSPOOL.LIB
C:\PROGRAM FILES (X86)\WINDOWS KITS\10\LIB\10.0.15063.0\UM\X86\COMDLG32.LIB
C:\PROGRAM FILES (X86)\WINDOWS KITS\10\LIB\10.0.15063.0\UM\X86\ADVAPI32.LIB
C:\PROGRAM FILES (X86)\WINDOWS KITS\10\LIB\10.0.15063.0\UM\X86\SHELL32.LIB
C:\PROGRAM FILES (X86)\WINDOWS KITS\10\LIB\10.0.15063.0\UM\X86\OLE32.LIB
C:\PROGRAM FILES (X86)\WINDOWS KITS\10\LIB\10.0.15063.0\UM\X86\OLEAUT32.LIB
C:\PROGRAM FILES (X86)\WINDOWS KITS\10\LIB\10.0.15063.0\UM\X86\UUID.LIB
C:\PROGRAM FILES (X86)\WINDOWS KITS\10\LIB\10.0.15063.0\UM\X86\ODBC32.LIB
C:\PROGRAM FILES (X86)\WINDOWS KITS\10\LIB\10.0.15063.0\UM\X86\ODBCCP32.LIB
C:\USERS\ADMIN\SOURCE\REPOS\SDIZO_PROJ1\SDIZO_PROJ1\RELEASE\ARRAY.OBJ
C:\USERS\ADMIN\SOURCE\REPOS\SDIZO_PROJ1\SDIZO_PROJ1\RELEASE\BINARY_HEAP.OBJ
C:\USERS\ADMIN\SOURCE\REPOS\SDIZO_PROJ1\SDIZO_PROJ1\RELEASE\DATA_STRUCT.OBJ
C:\USERS\ADMIN\SOURCE\REPOS\SDIZO_PROJ1\SDIZO_PROJ1\RELEASE\LIST.OBJ
C:\USERS\ADMIN\SOURCE\REPOS\SDIZO_PROJ1\SDIZO_PROJ1\RELEASE\RBTREE.OBJ
C:\USERS\ADMIN\SOURCE\REPOS\SDIZO_PROJ1\SDIZO_PROJ1\RELEASE\SDIZOPROJ1.OBJ
C:\USERS\ADMIN\SOURCE\REPOS\SDIZO_PROJ1\SDIZO_PROJ1\RELEASE\STDAFX.OBJ
C:\USERS\ADMIN\SOURCE\REPOS\SDIZO_PROJ1\SDIZO_PROJ1\RELEASE\STLARRAY.OBJ
C:\USERS\ADMIN\SOURCE\REPOS\SDIZO_PROJ1\SDIZO_PROJ1\RELEASE\STLLIST.OBJ
C:\PROGRAM FILES (X86)\MICROSOFT VISUAL STUDIO\2017\ENTERPRISE\VC\TOOLS\MSVC\14.11.25503\BIN\HOSTX86\X86\C2.DLL
C:\PROGRAM FILES (X86)\MICROSOFT VISUAL STUDIO\2017\ENTERPRISE\VC\TOOLS\MSVC\14.11.25503\LIB\X86\MSVCPRT.LIB
C:\PROGRAM FILES (X86)\MICROSOFT VISUAL STUDIO\2017\ENTERPRISE\VC\TOOLS\MSVC\14.11.25503\LIB\X86\MSVCRT.LIB
C:\PROGRAM FILES (X86)\MICROSOFT VISUAL STUDIO\2017\ENTERPRISE\VC\TOOLS\MSVC\14.11.25503\LIB\X86\OLDNAMES.LIB
C:\PROGRAM FILES (X86)\MICROSOFT VISUAL STUDIO\2017\ENTERPRISE\VC\TOOLS\MSVC\14.11.25503\LIB\X86\VCRUNTIME.LIB
C:\PROGRAM FILES (X86)\WINDOWS KITS\10\LIB\10.0.15063.0\UCRT\X86\UCRT.LIB
C:\PROGRAM FILES (X86)\MICROSOFT VISUAL STUDIO\2017\ENTERPRISE\VC\TOOLS\MSVC\14.11.25503\BIN\HOSTX86\X86\1045\LINKUI.DLL
C:\PROGRAM FILES (X86)\WINDOWS KITS\10\BIN\10.0.15063.0\X86\RC.EXE
C:\PROGRAM FILES (X86)\MICROSOFT VISUAL STUDIO\2017\ENTERPRISE\VC\TOOLS\MSVC\14.11.25503\BIN\HOSTX86\X86\CVTRES.EXE
C:\PROGRAM FILES (X86)\MICROSOFT VISUAL STUDIO\2017\ENTERPRISE\VC\TOOLS\MSVC\14.11.25503\BIN\HOSTX86\X86\MSPDBSRV.EXE
C:\WINDOWS\SYSTEM32\TZRES.DLL
